<svg xmlns="http://www.w3.org/2000/svg" xmlns:xlink="http://www.w3.org/1999/xlink" width="0" height="0" style="position:absolute">
	
		<symbol id="accumulator" viewBox="0 0 512 384">
			<defs><path id="00a" d="M480 117.33c-5.9 0-10.67 4.78-10.67 10.67v224c0 4.08-6.58 10.67-10.66 10.67H53.33c-4.08 0-10.66-6.58-10.66-10.67V128c0-5.9-4.78-10.67-10.67-10.67H21.33v-32h160v21.34c0 5.89 4.78 10.66 10.67 10.66h128c5.9 0 10.67-4.77 10.67-10.66v-20.7c.06-.21.1-.42.1-.64h159.9v32zm-416-96h64V64H64zm320 0h64V64h-64zM501.33 64h-32V21.33A21.33 21.33 0 0 0 448 0h-64a21.33 21.33 0 0 0-21.33 21.33V64h-32c-14.75 0-20.82 12.38-21.34 21.33V96H202.67V85.33c0-15.75-5.58-21.33-21.34-21.33h-32V21.33A21.33 21.33 0 0 0 128 0H64a21.33 21.33 0 0 0-21.33 21.33V64h-32C4.77 64 0 68.78 0 74.67V128c0 5.9 4.78 10.67 10.67 10.67h10.66V352c0 15.85 16.15 32 32 32h405.34c15.85 0 32-16.15 32-32V138.67h10.66c5.9 0 10.67-4.78 10.67-10.67V74.67c0-5.9-4.78-10.67-10.67-10.67z"></path><path id="01b" d="M341.34 234.67h32v32a10.67 10.67 0 0 0 21.33 0v-32h32a10.67 10.67 0 0 0 0-21.33h-32v-32a10.67 10.67 0 0 0-21.33 0v32h-32a10.67 10.67 0 0 0 0 21.33z"></path><path id="02c" d="M170.67 213.33H85.34a10.67 10.67 0 0 0 0 21.33h85.33a10.67 10.67 0 0 0 0-21.33z"></path></defs><use fill="#a6a6a6" xlink:href="#00a"></use><use fill="#a6a6a6" xlink:href="#01b"></use><use fill="#a6a6a6" xlink:href="#02c"></use>
		</symbol>
	
		<symbol id="cart" viewBox="0 0 453 487">
			<title>Shape</title><path d="M129.069 320.369h268.1c30.4 0 55.2-24.8 55.2-55.2v-112.8-.4-.8c0-.2 0-.4-.1-.6 0-.2-.1-.5-.1-.7 0-.2-.1-.4-.1-.6-.1-.2-.1-.4-.2-.7-.1-.2-.1-.4-.2-.6-.1-.2-.1-.4-.2-.6-.1-.2-.2-.4-.3-.7-.1-.2-.2-.4-.3-.5l-.3-.6c-.1-.2-.2-.3-.3-.5-.1-.2-.3-.4-.4-.6-.1-.2-.2-.3-.4-.5-.1-.2-.3-.3-.4-.5-.1-.2-.3-.3-.4-.5-.1-.2-.3-.3-.4-.4l-.5-.5c-.2-.1-.3-.3-.5-.4-.2-.1-.4-.3-.6-.4-.2-.1-.3-.2-.5-.3-.2-.1-.4-.2-.6-.4l-.6-.3-.6-.3-.6-.3c-.2-.1-.4-.1-.6-.2-.2-.1-.5-.2-.7-.2-.2 0-.4-.1-.5-.1-.3-.1-.5-.1-.8-.1-.1 0-.2-.1-.4-.1l-339.8-46.9v-47.4c0-.5 0-1-.1-1.4 0-.1 0-.2-.1-.4 0-.3-.1-.6-.1-.9-.1-.3-.1-.5-.2-.8 0-.2-.1-.3-.1-.5l-.3-.9c0-.1-.1-.3-.1-.4-.1-.3-.2-.5-.4-.8-.1-.1-.1-.3-.2-.4-.1-.2-.2-.4-.4-.6-.1-.2-.2-.3-.3-.5-.1-.2-.2-.3-.3-.5-.1-.2-.3-.4-.4-.6l-.3-.3-.6-.6-.3-.3c-.2-.2-.4-.4-.7-.6-.1-.1-.3-.2-.4-.3-.2-.2-.4-.3-.6-.5-.3-.2-.6-.4-.8-.5-.1-.1-.2-.1-.3-.2-.4-.2-.9-.4-1.3-.6l-73.7-31c-6.9-2.9-14.8.3-17.7 7.2-2.9 6.9.3 14.8 7.2 17.7l65.4 27.6v295.8c0 28 21 51.2 48.1 54.7-4.9 8.2-7.8 17.8-7.8 28 0 30.1 24.5 54.5 54.5 54.5s54.5-24.5 54.5-54.5c0-10-2.7-19.5-7.5-27.5h121.4c-4.8 8.1-7.5 17.5-7.5 27.5 0 30.1 24.5 54.5 54.5 54.5s54.5-24.5 54.5-54.5-24.5-54.5-54.5-54.5h-255c-15.6 0-28.2-12.7-28.2-28.2v-36.6c8.2 4.8 17.9 7.6 28.2 7.6zm67.2 111.6c0 15.2-12.4 27.5-27.5 27.5s-27.5-12.4-27.5-27.5 12.4-27.5 27.5-27.5 27.5 12.3 27.5 27.5zm215.4 0c0 15.2-12.4 27.5-27.5 27.5s-27.5-12.4-27.5-27.5 12.4-27.5 27.5-27.5 27.5 12.3 27.5 27.5zm-14.5-138.6h-268.1c-15.6 0-28.2-12.7-28.2-28.2v-145.9l324.5 44.7v101.1c0 15.7-12.7 28.3-28.2 28.3z" fill-rule="nonzero" fill="#FFF"></path>
		</symbol>
	
</svg>
